G04 #@! TF.GenerationSoftware,KiCad,Pcbnew,7.0.9-7.0.9~ubuntu22.04.1*
G04 #@! TF.CreationDate,2023-12-16T08:29:27-05:00*
G04 #@! TF.ProjectId,and_panel_analogDrumPanel,616e645f-7061-46e6-956c-5f616e616c6f,rev?*
G04 #@! TF.SameCoordinates,Original*
G04 #@! TF.FileFunction,Other,Comment*
%FSLAX46Y46*%
G04 Gerber Fmt 4.6, Leading zero omitted, Abs format (unit mm)*
G04 Created by KiCad (PCBNEW 7.0.9-7.0.9~ubuntu22.04.1) date 2023-12-16 08:29:27*
%MOMM*%
%LPD*%
G01*
G04 APERTURE LIST*
%ADD10C,0.150000*%
%ADD11C,0.120000*%
G04 APERTURE END LIST*
D10*
G04 #@! TO.C,H37*
X80900000Y82600000D02*
G75*
G03*
X80900000Y82600000I-9500000J0D01*
G01*
D11*
G04 #@! TO.C,H40*
X105900000Y57600000D02*
X103100000Y57600000D01*
X105900000Y63600000D02*
X103100000Y63600000D01*
X105900000Y251600000D02*
X103100000Y251600000D01*
X105900000Y257600000D02*
X103100000Y257600000D01*
X105900000Y57600000D02*
G75*
G03*
X105900000Y63600000I0J3000000D01*
G01*
X105900000Y251600000D02*
G75*
G03*
X105900000Y257600000I0J3000000D01*
G01*
X103100000Y63600000D02*
G75*
G03*
X103100000Y57600000I0J-3000000D01*
G01*
X103100000Y257600000D02*
G75*
G03*
X103100000Y251600000I0J-3000000D01*
G01*
D10*
G04 #@! TO.C,H35*
X103400000Y177600000D02*
G75*
G03*
X103400000Y177600000I-7000000J0D01*
G01*
G04 #@! TO.C,H36*
X103400000Y137600000D02*
G75*
G03*
X103400000Y137600000I-7000000J0D01*
G01*
G04 #@! TO.C,H33*
X99200000Y232600000D02*
G75*
G03*
X99200000Y232600000I-2800000J0D01*
G01*
G04 #@! TO.C,H27*
X74200000Y232600000D02*
G75*
G03*
X74200000Y232600000I-2800000J0D01*
G01*
G04 #@! TO.C,H29*
X78400000Y177600000D02*
G75*
G03*
X78400000Y177600000I-7000000J0D01*
G01*
G04 #@! TO.C,H32*
X105900000Y107600000D02*
G75*
G03*
X105900000Y107600000I-9500000J0D01*
G01*
D11*
G04 #@! TO.C,H39*
X61900000Y257600000D02*
X64700000Y257600000D01*
X61900000Y251600000D02*
X64700000Y251600000D01*
X61900000Y63600000D02*
X64700000Y63600000D01*
X61900000Y57600000D02*
X64700000Y57600000D01*
X61900000Y257600000D02*
G75*
G03*
X61900000Y251600000I0J-3000000D01*
G01*
X61900000Y63600000D02*
G75*
G03*
X61900000Y57600000I0J-3000000D01*
G01*
X64700000Y251600000D02*
G75*
G03*
X64700000Y257600000I0J3000000D01*
G01*
X64700000Y57600000D02*
G75*
G03*
X64700000Y63600000I0J3000000D01*
G01*
D10*
G04 #@! TO.C,H38*
X105900000Y82600000D02*
G75*
G03*
X105900000Y82600000I-9500000J0D01*
G01*
G04 #@! TO.C,H34*
X103400000Y217600000D02*
G75*
G03*
X103400000Y217600000I-7000000J0D01*
G01*
G04 #@! TO.C,H30*
X78400000Y137600000D02*
G75*
G03*
X78400000Y137600000I-7000000J0D01*
G01*
G04 #@! TO.C,H28*
X78400000Y217600000D02*
G75*
G03*
X78400000Y217600000I-7000000J0D01*
G01*
G04 #@! TO.C,H31*
X80900000Y107600000D02*
G75*
G03*
X80900000Y107600000I-9500000J0D01*
G01*
G04 #@! TD*
M02*
