Version 4
SHEET 1 4540 1000
WIRE 2464 -576 2272 -576
WIRE 2272 -544 2272 -576
WIRE 2000 -512 2000 -544
WIRE 2016 -512 2000 -512
WIRE 2112 -496 2080 -496
WIRE 2208 -496 2112 -496
WIRE 1904 -480 1856 -480
WIRE 2000 -480 1984 -480
WIRE 2016 -480 2000 -480
WIRE 2000 -384 2000 -480
WIRE 2032 -384 2000 -384
WIRE 2112 -384 2112 -496
WIRE 2112 -384 2096 -384
WIRE 2000 -304 2000 -384
WIRE 2032 -304 2000 -304
WIRE 2272 -304 2272 -448
WIRE 2272 -304 2112 -304
WIRE 2272 -272 2272 -304
WIRE 2272 -176 2272 -192
WIRE 2368 -16 2368 -32
WIRE 2464 -16 2464 -576
WIRE -304 32 -304 -16
WIRE 2016 32 2000 32
WIRE 2128 32 2096 32
WIRE 2288 32 2128 32
WIRE 112 48 112 0
WIRE 512 48 512 0
WIRE 784 48 784 0
WIRE 1184 48 1184 0
WIRE 2272 160 2240 160
WIRE 2288 160 2272 160
WIRE 2128 192 2128 32
WIRE 2240 192 2240 160
WIRE 2352 224 2352 208
WIRE 2368 224 2368 208
WIRE 2528 240 2528 208
WIRE 2608 240 2608 208
WIRE 2608 240 2528 240
WIRE 2528 256 2528 240
WIRE 704 272 704 256
WIRE 864 272 864 256
WIRE 1024 272 1024 256
WIRE 1184 272 1184 256
WIRE 2128 288 2128 272
WIRE 2240 288 2240 272
WIRE 2672 288 2672 208
WIRE 2768 288 2672 288
WIRE 2528 336 2528 320
WIRE 2272 384 2272 160
WIRE 2304 384 2272 384
WIRE 2672 384 2672 288
WIRE 2672 384 2384 384
WIRE 2672 400 2672 384
WIRE 2672 496 2672 480
FLAG 704 272 0
FLAG 864 272 0
FLAG 704 176 Vp12
FLAG 864 176 Vm12
FLAG 2048 -464 Vp12
FLAG 2048 -528 Vm12
FLAG 2768 288 OUTPUT
FLAG 2000 -544 0
FLAG 1024 272 0
FLAG 1184 272 0
FLAG 1024 176 Vp5
FLAG 1184 176 Vm5
FLAG 1184 48 0
FLAG 1184 -80 SQUARE
FLAG 784 48 0
FLAG 784 -80 SINE
FLAG 512 48 0
FLAG 512 -80 TRI
FLAG 112 48 0
FLAG 112 -80 RAMP
FLAG -304 32 0
FLAG -304 -96 STEP
FLAG 2128 288 0
FLAG 2240 288 0
FLAG 2672 496 Vm12
FLAG 2528 336 0
FLAG 2368 -32 Vp12
FLAG 2368 224 Vm12
FLAG 1856 -480 RAMP
FLAG 2000 32 SINE
FLAG 2272 -176 0
SYMBOL voltage 704 160 R0
SYMATTR InstName V1
SYMATTR Value 12
SYMBOL voltage 864 160 R0
WINDOW 123 0 0 Left 2
WINDOW 39 0 0 Left 2
SYMATTR InstName V2
SYMATTR Value -12
SYMBOL TL074 2048 -432 M180
WINDOW 3 20 124 Left 2
SYMATTR InstName U1
SYMBOL res 2000 -496 R90
WINDOW 0 0 56 VBottom 2
WINDOW 3 32 56 VTop 2
SYMATTR InstName R1
SYMATTR Value 100k
SYMBOL res 2128 -288 M270
WINDOW 0 32 56 VTop 2
WINDOW 3 0 56 VBottom 2
SYMATTR InstName R2
SYMATTR Value 100k
SYMBOL voltage 1024 160 R0
SYMATTR InstName V4
SYMATTR Value 5
SYMBOL voltage 1184 160 R0
WINDOW 123 0 0 Left 2
WINDOW 39 0 0 Left 2
SYMATTR InstName V5
SYMATTR Value -5
SYMBOL voltage 1184 -96 R0
WINDOW 123 24 124 Left 2
WINDOW 39 0 0 Left 2
WINDOW 3 24 152 Left 2
SYMATTR Value2 AC 1 0
SYMATTR Value PULSE(-5 5 0 1u 1u 5m 10m)
SYMATTR InstName V3
SYMBOL voltage 784 -96 R0
WINDOW 123 24 124 Left 2
WINDOW 39 0 0 Left 2
WINDOW 3 24 152 Left 2
SYMATTR Value2 AC 1 0
SYMATTR Value SINE(0 5 40)
SYMATTR InstName V6
SYMBOL voltage 512 -96 R0
WINDOW 123 24 124 Left 2
WINDOW 39 0 0 Left 2
WINDOW 3 24 152 Left 2
SYMATTR Value2 AC 1 0
SYMATTR Value PULSE(-5 5 0 5m 5m 0 10m)
SYMATTR InstName V7
SYMBOL voltage 112 -96 R0
WINDOW 123 24 124 Left 2
WINDOW 39 0 0 Left 2
WINDOW 3 24 152 Left 2
SYMATTR Value2 AC 1 0
SYMATTR Value PULSE(0 5 0 1 1u 0 1)
SYMATTR InstName V8
SYMBOL voltage -304 -112 R0
WINDOW 123 24 124 Left 2
WINDOW 39 0 0 Left 2
WINDOW 3 24 152 Left 2
SYMATTR Value2 AC 1 0
SYMATTR Value PULSE(0 5 60m 1u 1u 500m 500m)
SYMATTR InstName V9
SYMBOL res 2112 16 R90
WINDOW 0 0 56 VBottom 2
WINDOW 3 32 56 VTop 2
SYMATTR InstName R3
SYMATTR Value 100k
SYMBOL res 2144 288 R180
WINDOW 0 36 76 Left 2
WINDOW 3 36 40 Left 2
SYMATTR InstName R4
SYMATTR Value 620
SYMBOL res 2256 288 R180
WINDOW 0 36 76 Left 2
WINDOW 3 36 40 Left 2
SYMATTR InstName R5
SYMATTR Value 620
SYMBOL res 2288 400 R270
WINDOW 0 32 56 VTop 2
WINDOW 3 0 56 VBottom 2
SYMATTR InstName R6
SYMATTR Value 100k
SYMBOL res 2656 384 R0
SYMATTR InstName R7
SYMATTR Value 10k
SYMBOL lm13700 2368 96 R0
SYMATTR InstName U2
SYMBOL cap 2512 256 R0
SYMATTR InstName C1
SYMATTR Value {c}
SYMBOL pnp 2208 -544 R0
SYMATTR InstName Q1
SYMBOL diode 2096 -400 R90
WINDOW 0 0 32 VBottom 2
WINDOW 3 32 32 VTop 2
SYMATTR InstName D1
SYMBOL res 2256 -288 R0
SYMATTR InstName R8
SYMATTR Value 10k
TEXT 1240 -248 Left 2 !.tran 2
TEXT 648 328 Left 2 !.model MyIdealDiode D(Ron=1 Roff=1Meg Vfwd=1 Vrev=20)
TEXT 1656 232 Left 2 !.step param c list 1n 3n 5n 10n
